<?xml version="1.0" encoding="utf-8"?>
<!-- Generator: Adobe Illustrator 22.1.0, SVG Export Plug-In . SVG Version: 6.00 Build 0)  -->
<svg version="1.1" id="Layer_1" xmlns="http://www.w3.org/2000/svg" xmlns:xlink="http://www.w3.org/1999/xlink" x="0px" y="0px"
	 viewBox="0 0 512 512" style="enable-background:new 0 0 512 512;" xml:space="preserve">
<style type="text/css">
	.st0{fill:#FFFFFF;}
</style>
<g>
	<g>
		<path class="st0" d="M409.8,209.7c-9.9,0-19.4,1.4-28.5,4l-25.6-67.5h21.1c4.5,0,8.1-3.6,8.1-8.1c0-2.3-0.9-4.3-2.4-5.8h25.1
			c0.8,2.8,1.3,6.7,0,10.7c-2,6.1-7.8,11.3-17.3,15.4c-4.1,1.8-6,6.6-4.2,10.7c1.3,3.1,4.3,4.9,7.5,4.9c1.1,0,2.2-0.2,3.2-0.7
			c14-6,22.8-14.5,26.3-25.3c4.7-14.6-2.7-27.4-3-27.9c-1.5-2.5-4.1-4-7-4h-48.4c-4.5,0-8.1,3.6-8.1,8.1c0,2.3,0.9,4.3,2.4,5.8H344
			c-2.7,0-5.2,1.3-6.7,3.5s-1.9,5-0.9,7.5l6.7,17.8l-155.2,19.1l-5.4-17.7c-0.2-0.6-0.4-1.1-0.7-1.6l-4.7-15.5l36.7-7.8
			c3.5-0.7,6.1-3.7,6.4-7.3c0.1-0.6,0-1.2,0-1.6l0-9.6c0-8.6-4.2-18.9-24.3-18.9h-55.3c-13.4,0-24.3,10.9-24.3,24.3v4
			c0,13.4,10.9,24.3,24.3,24.3c0.5,0,1-0.1,1.6-0.2l7.1-1.4c0,0,0.1,0,0.1,0l11.7-2.5l5.6,18.4c0.2,0.5,0.4,1,0.6,1.5l5.8,19.1
			l-23.1,36.2c-14.3-7.6-30.6-12-48-12C45.9,209.7,0,255.5,0,311.9c0,56.4,45.9,102.2,102.2,102.2c41.6,0,77.5-25,93.4-60.7
			c7,9.9,18.5,16.5,31.6,16.5c2,0,4-0.2,5.9-0.5L243,395c1.2,3.1,4.2,5.2,7.6,5.2h16c4.5,0,8.1-3.6,8.1-8.1s-3.6-8.1-8.1-8.1h-10.4
			l-7.8-20.4c10.5-6.9,17.5-18.8,17.5-32.3c0-9.9-3.7-18.9-9.8-25.7l95.3-125.2l14.8,39c-34.6,16.4-58.6,51.7-58.6,92.4
			c0,56.4,45.9,102.2,102.2,102.2c56.4,0,102.2-45.9,102.2-102.2C512,255.5,466.1,209.7,409.8,209.7z M146.1,133l-6.1,1.2
			c-4.1-0.3-7.4-3.8-7.4-8v-4c0-4.4,3.6-8.1,8.1-8.1h55.3c6.6,0,7.9,1.2,7.9,1.2l0,0c0,0,0.2,0.4,0.2,1.4v4L146.1,133z M102.2,397.9
			c-47.4,0-86-38.6-86-86c0-47.4,38.6-86,86-86c14.1,0,27.4,3.4,39.2,9.5l-7.2,11.3c-9.6-4.7-20.5-7.4-32-7.4
			c-40,0-72.6,32.6-72.6,72.6s32.6,72.6,72.6,72.6c25.4,0,49.3-13.6,62.4-35.4c2.3-3.8,1-8.8-2.8-11.1c-3.8-2.3-8.8-1-11.1,2.8
			c-10.1,17-28.7,27.5-48.4,27.5c-31.1,0-56.4-25.3-56.4-56.4c0-31.1,25.3-56.4,56.4-56.4c8.2,0,16.1,1.8,23.1,5l-19.7,30.8
			c-1.1-0.2-2.3-0.3-3.5-0.3c-11.5,0-20.9,9.4-20.9,20.9c0,11.5,9.4,20.9,20.9,20.9c7.5,0,14-4,17.7-9.9l65.6,10.3
			C176.1,370.4,142.3,397.9,102.2,397.9z M158.6,311.9c0,0.2,0,0.4,0,0.6l-36.1-5.7c-0.6-2.5-1.7-4.8-3.1-6.8l19.6-30.8
			C151,279.6,158.6,294.9,158.6,311.9z M106.9,311.9c0,2.6-2.1,4.6-4.6,4.6s-4.6-2.1-4.6-4.6s2.1-4.6,4.6-4.6
			S106.9,309.4,106.9,311.9z M188.1,317.1l-13.3-2.1c0-1,0.1-2.1,0.1-3.1c0-22.8-10.5-43.1-27-56.4l7.2-11.3
			c20.2,15.8,33.1,40.3,33.1,67.8C188.3,313.7,188.2,315.4,188.1,317.1z M163.9,230.4l15.6-24.5l28.1,92.2c-1.3,0.8-2.5,1.6-3.7,2.5
			C200.7,272,185.7,246.9,163.9,230.4z M242.3,347.8l-7.4-19.4c-1.6-4.2-6.3-6.3-10.5-4.7c-4.2,1.6-6.3,6.3-4.7,10.5l7.4,19.4
			c-12.3-0.1-22.2-10.1-22.2-22.3c0-12.3,10-22.4,22.4-22.4s22.4,10,22.4,22.4C249.6,337.9,246.8,343.7,242.3,347.8z M272.2,257.5
			l-3.2-2.3l9.5-12.7l3.3,2.4L272.2,257.5z M249.2,254.6l-5.6-4.2l21.3-28.4l5.6,4.2L249.2,254.6z M291.7,231.9l-3.4-2.4l0.1-0.1
			c1.3-1.7,1.8-3.9,1.5-6c-0.3-2.1-1.4-4.1-3.2-5.3l-2.8-2.1l4-5.4c2.7-3.6,2-8.7-1.6-11.4c-3.6-2.7-8.7-2-11.4,1.6l-4,5.4l-2.8-2.1
			c-3.6-2.7-8.7-2-11.4,1.6l-31,41.4c-2.7,3.6-2,8.7,1.6,11.4l18.6,13.9c1.4,1.1,3.1,1.6,4.9,1.6c0.4,0,0.8,0,1.2-0.1
			c2.1-0.3,4.1-1.4,5.3-3.2l2-2.6l3.1,2.2L242.9,296c-4.8-2.1-10.1-3.3-15.6-3.3c-1.4,0-2.9,0.1-4.2,0.2l-30.3-99.4l141.4-17.4
			L291.7,231.9z M409.8,397.9c-47.4,0-86-38.6-86-86c0-33.8,19.6-63.1,48.1-77.2l4.8,12.6c-13.4,6.8-24.1,17.4-31.1,30.8
			c-9,17.2-10.8,36.8-5.1,55.3c5.8,18.5,18.4,33.7,35.6,42.7c10.6,5.6,22.1,8.4,33.7,8.4c7.3,0,14.5-1.1,21.7-3.3
			c18.5-5.8,33.7-18.4,42.7-35.6c18.6-35.4,4.9-79.4-30.5-98.1c-10.3-5.4-21.8-8.3-33.3-8.3c0,0,0,0,0,0c-4.5,0-8.1,3.6-8.1,8.1
			c0,4.5,3.6,8.1,8.1,8.2c9.1,0,17.8,2.2,25.9,6.5c27.5,14.5,38.1,48.6,23.7,76.1c-7,13.3-18.8,23.1-33.2,27.6
			c-14.4,4.5-29.6,3.1-43-3.9c-13.3-7-23.1-18.8-27.6-33.2c-4.5-14.4-3.1-29.6,3.9-43c5.2-9.9,12.9-17.8,22.6-23.1l13,34.2
			c-4,3.8-6.5,9.2-6.5,15.1c0,11.5,9.4,20.9,20.9,20.9c11.5,0,20.9-9.4,20.9-20.9c0-11.2-8.9-20.4-20.1-20.8L387,229
			c7.2-2,14.8-3.1,22.7-3.1c47.4,0,86,38.6,86,86C495.8,359.3,457.2,397.9,409.8,397.9z M405.1,311.9c0-2.6,2.1-4.6,4.6-4.6
			c2.6,0,4.6,2.1,4.6,4.6s-2.1,4.6-4.6,4.6C407.2,316.6,405.1,314.5,405.1,311.9z"/>
	</g>
</g>
</svg>
